[
{
	"class": "bot",
	"instructionSet": [],
	"program": ["Forward"],
	"programSize": 1,
	"x": 1,	"y": 5,
	"flagColor": {"r": 1,"g": 1,"a": 1},
	"texture": "arrow_bot",
	"rotation": 180,
	"id": 1,
	"editable": false
},
{
	"class": "bot",
	"instructionSet": ["Up","Down","Left","Right"],
	"program": [],
	"programSize": 14,
	"x": 3,	"y": 0,
	"flagColor": {"g": 1,"a": 1},
	"texture": "round_bot",
	"rotation": 0,
}
]

