[
{
	"class": "bot",
	"instructionSet": ["Forward","TurnLeft","TurnRight"],
	"program": [],
	"programSize": 6,
	"x": 2,
	"y": 3,
	"flagColor": {"g": 1,"a": 1},
	"texture": "arrow_bot",
	"rotation": 180
}
]

