[
{
	"class": "bot",
	"instructionSet": ["UpWall", "DownWall", "LeftWall", "RightWall"],
	"program": [],
	"programSize": 8,
	"x": 0, "y": 0,
	"flagColor": {"g": 1,"a": 1},
	"texture": "round_bot"
}
]

