[
{
	"class": "bot",
	"instructionSet": ["UpWall", "DownWall", "LeftWall", "RightWall"],
	"program": [],
	"programSize": 12,
	"x": 6, "y": 5,
	"flagColor": {"g": 1,"a": 1},
	"texture": "round_bot"
},
{
	"class": "bot",
	"program": ["Chase"],
	"programSize": 1,
	"x": 4, "y": 0,
	"flagColor": {"r": 1,"a": 1},
	"texture": "round_bot",
	"editable": false,
	"id": 1,
	"killOnHit": true
}
]

