{
  "horaris":[
    {
        "Grup":"A",
        "Dilluns":["Matematiques","Catala"],
        "Dimarts":["Fisica","Socials"],
        "Dimecres":["Castella","Quimica"],
        "Dijous":["Tecnologia","Matematiques"],
        "Divendres":["Naturals","Catala"]
      },
      {
        "Grup":"B",
        "Dilluns":["Matematiques","Catala"],
        "Dimarts":["Fisica","Socials"],
        "Dimecres":["Castella","Quimica"],
        "Dijous":["Tecnologia","Matematiques"],
        "Divendres":["Naturals","Catala"]
    }
  ]
}
